Instrumentos de Análisis Urbanos II - Trabajo Final: Trabajo Final
…
Uno de los aspectos más notables de la Ciudad Autónoma de Buenos Aires es su herencia cultural. Su riqueza histórica, diversidad artística, músicos, escritores y arquitectura, no dejan de sorprender a quienes la recorren y visitan.
El presente trabajo práctico se propone estudiar la distribución espacial de los Espacios Culturales de la ciudad; aquellos sitios destinados a la congregación de personas para realizar lecturas, visitar exposiciones, asistir a espectáculos o shows musicales, acudir a actividades teatrales o muestras audiovisuales.

Activación de Librería

Para comenzar se procede a instalar todas las librerías necesarias para el estudio.

Importación de Datos

Espacios culturales de la Ciudad Autónoma de Buenos Aires

Consiste en un listado de espacios culturales públicos, privados e independientes localizados en la Ciudad de Buenos Aires, como por ejemplo: bares, bibliotecas, calesitas, centros culturales, monumentos y lugares históricos, disquerías, espacios de exhibición, espacios de formación, espacios escénicos, espacios feriales, librerías y salas de cine.

# A tibble: 3,053 × 30
     fid FUNCION_PRINCIPAL SUBCATEGORIA ESTABLECIMIENTO          
   <dbl> <chr>             <chr>        <chr>                    
 1     1 ANFITEATRO        <NA>         ALEMANIA                 
 2     2 ANFITEATRO        <NA>         ALLENDE, SALVADOR        
 3     3 ANFITEATRO        <NA>         ANFITEATRO ESCALINATA    
 4     4 ANFITEATRO        <NA>         ANFITEATRO EVA PERON     
 5     5 ANFITEATRO        <NA>         ANFITEATRO VILLA CILDAÑEZ
 6     6 ANFITEATRO        <NA>         ÁNGEL GRIS               
 7     7 ANFITEATRO        <NA>         CIUDAD DE UDINE          
 8     8 ANFITEATRO        <NA>         CORTAZAR, JULIO          
 9     9 ANFITEATRO        <NA>         DE LOS COLEGIALES        
10    10 ANFITEATRO        <NA>         DEL CABALLITO            
# ℹ 3,043 more rows
# ℹ 26 more variables: FUNCION_SECUNDARIA <chr>, PROGRAMACION <chr>,
#   SUCURSAL <chr>, SALA <chr>, CALLE <chr>, ALTURA <dbl>,
#   BARRIO <chr>, COMUNA <chr>, DIRECCION <chr>, LONGITUD <dbl>,
#   LATITUD <dbl>, TELEFONO <chr>, MAIL <chr>, WEB <chr>,
#   ...19 <dbl>, FACEBOOK <chr>, TWITTER <chr>, INSTAGRAM <chr>,
#   CAMARA_1 <chr>, CAMARA_2 <chr>, REDES <chr>, …
…
Al indagar en la base de datos de los Espacios Culturales de CABA, es posible realizar las siguientes observaciones:

El dataframe cuenta con 2.968 filas y 29 columnas, donde 23 son de tipo ‘character’ y 6 son de tipo ‘numeric’.

Contiene aspectos relativos a la función, categoría y nombre del establecimiento; datos sobre la programación, sucursal y salas; información geográfica como la dirección, el barrio, la comuna, latitud y longitud; datos de contacto como teléfono, mail y redes sociales; e información extra con menor relevancia para el presente análisis.

Si bien la base de datos es diversa y detallada, es preciso destacar que muchas de estas variables no cuentan con información, evidenciándose en su lugar la notación “N/A”.

En cuanto a las variables numéricas, un dato apreciable a simple vista es que los espacios culturales con mayor capacidad de congregación de personas corresponden a “espacios escénicos” y “salas de cine”, como por ejemplo: Movistar Arena, Luna Park, Gran Rex, entre otros.

Organización de la información

El estudio de la distribución geográfica de los espacios culturales puede prescindir de ciertas columnas de la base de datos, conservando únicamente 6 variables: Función principal - Establecimiento - Capacidad total - Comuna - Latitud - Longitud.

# A tibble: 3,053 × 6
   FUNCION_PRINCIPAL ESTABLECIMIENTO    CAPACIDAD_TOTAL COMUNA LATITUD
   <chr>             <chr>                        <dbl> <chr>    <dbl>
 1 ANFITEATRO        ALEMANIA                        NA COMUN…   -34.6
 2 ANFITEATRO        ALLENDE, SALVADOR               NA COMUN…   -34.6
 3 ANFITEATRO        ANFITEATRO ESCALI…              NA COMUN…   -34.7
 4 ANFITEATRO        ANFITEATRO EVA PE…               0 COMUN…   -34.6
 5 ANFITEATRO        ANFITEATRO VILLA …              NA COMUN…   -34.7
 6 ANFITEATRO        ÁNGEL GRIS                      NA COMUN…   -34.6
 7 ANFITEATRO        CIUDAD DE UDINE                 NA COMUN…   -34.6
 8 ANFITEATRO        CORTAZAR, JULIO                 NA COMUN…   -34.6
 9 ANFITEATRO        DE LOS COLEGIALES               NA COMUN…   -34.6
10 ANFITEATRO        DEL CABALLITO                   NA COMUN…   -34.6
# ℹ 3,043 more rows
# ℹ 1 more variable: LONGITUD <dbl>
…
Una vez acotado el universo de estudio, al efectuar un primer gráfico de aproximación rápida a la información, se evidencia la superioridad numérica de las bibliotecas (más de 600 establecimientos); seguidas por centros culturales, librerías, salas de teatro, monumentos y lugares históricos con más de 300 localidades; continuando por bares, museos, espacios de formación, galerías de arte y disquerías con más de 100 opciones; y demás espacios que no superan las 50 instalaciones por categoría.

Si bien la oferta es variada y extensa, parte de estas actividades no son puramente culturales. Puesto que el objetivo de esta investigación es estudiar la distribución de aquellos espacios que promueven la cultura en la ciudad, se procede a conservar sólo los sitios destinados a la congregación de personas para la lectura, exposiciones, espectáculos, shows musicales, actividades teatrales y muestras audiovisuales.
Por consiguiente, se han descartado ofertas más comerciales como los bares, disquerías, librerías y espacios feriales; alternativas recreativas como las calesitas; y los espacios de formación en donde se superpone lo cultural con lo educativo.

# A tibble: 2,112 × 6
   FUNCION_PRINCIPAL ESTABLECIMIENTO    CAPACIDAD_TOTAL COMUNA LATITUD
   <chr>             <chr>                        <dbl> <chr>    <dbl>
 1 ANFITEATRO        ALEMANIA                        NA COMUN…   -34.6
 2 ANFITEATRO        ALLENDE, SALVADOR               NA COMUN…   -34.6
 3 ANFITEATRO        ANFITEATRO ESCALI…              NA COMUN…   -34.7
 4 ANFITEATRO        ANFITEATRO EVA PE…               0 COMUN…   -34.6
 5 ANFITEATRO        ANFITEATRO VILLA …              NA COMUN…   -34.7
 6 ANFITEATRO        ÁNGEL GRIS                      NA COMUN…   -34.6
 7 ANFITEATRO        CIUDAD DE UDINE                 NA COMUN…   -34.6
 8 ANFITEATRO        CORTAZAR, JULIO                 NA COMUN…   -34.6
 9 ANFITEATRO        DE LOS COLEGIALES               NA COMUN…   -34.6
10 ANFITEATRO        DEL CABALLITO                   NA COMUN…   -34.6
# ℹ 2,102 more rows
# ℹ 1 more variable: LONGITUD <dbl>
…
Análisis de la distribución espacial en CABA

Esta análisis cuantitativo sobre la oferta de espacios culturales en la ciudad, puede enriquecerse al incorporar la variable espacial, con el objetivo de visualizar dónde se implanta cada uno. A tal efecto, se transforma el dataframe de espacios culturales en un objeto espacial sf, y se realiza un gráfico que superpone dicha distribución con la geografía de las comunas.

Simple feature collection with 2111 features and 6 fields
Geometry type: POINT
Dimension:     XY
Bounding box:  xmin: -58.52924 ymin: -34.6943 xmax: -58.34907 ymax: -34.53574
Geodetic CRS:  WGS 84
# A tibble: 2,111 × 7
   FUNCION_PRINCIPAL ESTABLECIMIENTO           CAPACIDAD_TOTAL COMUNA 
 * <chr>             <chr>                               <dbl> <chr>  
 1 ANFITEATRO        ALEMANIA                               NA COMUNA…
 2 ANFITEATRO        ALLENDE, SALVADOR                      NA COMUNA…
 3 ANFITEATRO        ANFITEATRO ESCALINATA                  NA COMUNA…
 4 ANFITEATRO        ANFITEATRO EVA PERON                    0 COMUNA…
 5 ANFITEATRO        ANFITEATRO VILLA CILDAÑEZ              NA COMUNA…
 6 ANFITEATRO        ÁNGEL GRIS                             NA COMUNA…
 7 ANFITEATRO        CIUDAD DE UDINE                        NA COMUNA…
 8 ANFITEATRO        CORTAZAR, JULIO                        NA COMUNA…
 9 ANFITEATRO        DE LOS COLEGIALES                      NA COMUNA…
10 ANFITEATRO        DEL CABALLITO                          NA COMUNA…
# ℹ 2,101 more rows
# ℹ 3 more variables: geometry <POINT [°]>, lat <dbl>, lon <dbl>
…
De igual modo se trabaja sobre el dataframe “EC_recorte”: renombrando la columna “COMUNA” como “name_COMUNA”, eliminando la notación “COMUNA NA”, agrupando la información por el tipo de espacio cultural y las comunas, determinando la cantidad de espacios culturales por comuna, conservando sólo los números que identifican a las comunas y transformando dicha variable en números.

# A tibble: 115 × 3
# Groups:   FUNCION_PRINCIPAL [9]
   FUNCION_PRINCIPAL name_COMUNA CANTIDAD
   <chr>                   <dbl>    <int>
 1 ANFITEATRO                  1        1
 2 ANFITEATRO                 10        2
 3 ANFITEATRO                 12        2
 4 ANFITEATRO                 13        1
 5 ANFITEATRO                 14        4
 6 ANFITEATRO                 15        1
 7 ANFITEATRO                  2        1
 8 ANFITEATRO                  3        1
 9 ANFITEATRO                  4        2
10 ANFITEATRO                  5        2
# ℹ 105 more rows
…
